{
    "userExist": "البريد الإلكتروني موجود بالفعل في النظام",
    "default": "عفوًا، هناك مشكلة في النظام",
    "tokenNotExistOnArticle": "الرجاد الدخول على الحساب من جديد",
    "emailPassNotFound": "البريد الإلكتروني أو كلمة المرور غير صحيحة",
    "incorrectEmailPassword": "البريد الإلكتروني أو كلمة المرور غير صحيحة",
    "userNotFound": "المستخدم غير موجود",
    "userInActive": "لم تتم الموافقة على المستخدم",
    "googelAuthTokenNotFound": "مشكلة في الاتصال عبر جوجل",
    "otpNotValid": "الرمز الذي أدخلته غير صحيح",
    "otpExpired": "الرمز الذي أدخلته غير صالح",
    "notVerified": "لم يتم التحقق من حسابك، يرجى التحقق من بريدك الإلكتروني والتحقق من الحساب",
    "tokenOrPasswordMissing": "الرمز أو كلمة المرور مفقودة",
    "mustLogin": "يجب عليك تسجيل الدخول",
    "pageNotFound": "لم يتم العثور على الصفحة",
    "pageNotApproved": "الصفحة غير معتمدة",
    "commentNotFound": "لم يتم العثور على رد",
    "verificationMailSent": "سيتم إرسال التحقق إلى عنوان البريد الإلكتروني الذي أدخلته",
    "mailSent": "تم إرسال البريد الإلكتروني بنجاح",
    "commentSanitize": "محتوى الرد غير صحيح",
    "fieldsMissing": "الرجاء إدخال كافة البيانات المطلوبة",
    "commentRestriction":"يمكنك إرسال ما يصل إلى 10 رسائل كل دقيقة"
}